{
  "project_info": {
    "project_number": "688774371389",
    "firebase_url": "https://medicus-d74f0.firebaseio.com",
    "project_id": "medicus-d74f0",
    "storage_bucket": "medicus-d74f0.appspot.com"
  },
  "client": [
    {
      "client_info": {
        "mobilesdk_app_id": "1:688774371389:android:5316ec816646cf46b7f254",
        "android_client_info": {
          "package_name": "com.comlinkinc.medicus"
        }
      },
      "oauth_client": [
        {
          "client_id": "688774371389-6m073qce7v8dgak602ic1i6f0j2fghll.apps.googleusercontent.com",
          "client_type": 1,
          "android_info": {
            "package_name": "com.comlinkinc.medicus",
            "certificate_hash": "38743acd3a41121bc041240bf5ff20ee417a5d37"
          }
        },
        {
          "client_id": "688774371389-ukboh4q1tq4dfr9ome3um5dip0g69e35.apps.googleusercontent.com",
          "client_type": 3
        }
      ],
      "api_key": [
        {
          "current_key": "AIzaSyCJK6bRjMKa_hOy-Bz9R8-WmUIaaOE2GqM"
        }
      ],
      "services": {
        "appinvite_service": {
          "other_platform_oauth_client": [
            {
              "client_id": "688774371389-ukboh4q1tq4dfr9ome3um5dip0g69e35.apps.googleusercontent.com",
              "client_type": 3
            }
          ]
        }
      }
    }
  ],
  "configuration_version": "1"
}